
<svg xmlns="http://www.w3.org/2000/svg" width="8" height="5" viewBox="0 0 8 5">
    <path fill="#1D1D1D" d="M7.333.78c-.26-.258-.68-.258-.94 0L4 3.14 1.64.78C1.38.522.96.522.7.78c-.126.125-.197.296-.197.473 0 .178.07.348.197.474l2.827 2.826c.125.127.295.198.473.198s.348-.071.473-.198l2.86-2.826c.127-.126.198-.296.198-.474 0-.177-.071-.348-.198-.473z"/>
</svg>
